<svg width="67" height="70" viewBox="0 0 67 70" fill="none" xmlns="http://www.w3.org/2000/svg">
<path d="M67 29.2505L54.8512 18.7382V1.3497H46.1695V11.2283L33.5 0.268372L0 29.2505L5.26703 37.0734L8.87742 33.9522V69.8699H58.1261V33.9561L61.7329 37.0773L67 29.2505ZM53.3029 64.3959H42.1817V43.6247H24.8183V64.3959H13.6971V30.4665L33.5 13.3315L53.3029 30.4665V64.3959Z" fill="black"/>
<path d="M35.569 28.3553V22.5645H31.1898V28.3553H26.08V33.3184H31.1898V39.1053H35.569V33.3184H40.6753V28.3553H35.569Z" fill="black"/>
</svg>
